<?xml version="1.0" encoding="UTF-8"?>
<?AutomationStudio Version="4.10.2.37"?>
<PanelMap xmlns="http://br-automation.co.at/AS/VC/Project">
  <Property Name="Description" Value="Keymapping for 5AP99D"/>
  <Property Name="HwFile" Value="5AP99D.156B-B62.hwx"/>
  <Property Name="Name" Value="5AP99D.156B-B62"/>
  <Property Name="NumLevel" Value="6"/>
  <Property Name="Type" Value="5AP99D.156B-B62"/>
  <PanelItems>
    <PanelItem Index="1">
      <KeyLevels>
        <KeyLevel Level="0" VirtualKey="ControlReset"/>
      </KeyLevels>
    </PanelItem>
    <PanelItem Index="2">
      <KeyLevels/>
    </PanelItem>
    <PanelItem Index="3">
      <KeyLevels/>
    </PanelItem>
    <PanelItem Index="4">
      <KeyLevels/>
    </PanelItem>
    <PanelItem Index="5">
      <KeyLevels>
        <KeyLevel Level="0" VirtualKey="kk123"/>
      </KeyLevels>
    </PanelItem>
    <PanelItem Index="6">
      <KeyLevels>
        <KeyLevel Level="0" VirtualKey="test"/>
      </KeyLevels>
    </PanelItem>
    <PanelItem Index="7">
      <KeyLevels/>
    </PanelItem>
    <PanelItem Index="8">
      <KeyLevels/>
    </PanelItem>
    <PanelItem Index="9">
      <KeyLevels/>
    </PanelItem>
    <PanelItem Index="10">
      <KeyLevels/>
    </PanelItem>
    <PanelItem Index="11">
      <KeyLevels/>
    </PanelItem>
    <PanelItem Index="12">
      <KeyLevels/>
    </PanelItem>
    <PanelItem Index="13">
      <KeyLevels/>
    </PanelItem>
    <PanelItem Index="14">
      <KeyLevels/>
    </PanelItem>
    <PanelItem Index="15">
      <KeyLevels/>
    </PanelItem>
    <PanelItem Index="16">
      <KeyLevels/>
    </PanelItem>
    <PanelItem Index="17">
      <KeyLevels/>
    </PanelItem>
    <PanelItem Index="18">
      <KeyLevels/>
    </PanelItem>
    <PanelItem Index="19">
      <KeyLevels/>
    </PanelItem>
    <PanelItem Index="20">
      <KeyLevels/>
    </PanelItem>
  </PanelItems>
</PanelMap>